{
  "id": "Conventions/log/log--input--npk_fertilizer",
  "title": "NPK Fertilizer - v0.0.1",
  "description": "Purpose",
  "source": "@site/docs/Conventions/log/log--input--npk_fertilizer.mdx",
  "sourceDirName": "Conventions/log",
  "slug": "/Conventions/log/log--input--npk_fertilizer",
  "permalink": "/software/json_schema_distribution/staging_wiki/docs/Conventions/log/log--input--npk_fertilizer",
  "draft": false,
  "unlisted": false,
  "tags": [],
  "version": "current",
  "frontMatter": {},
  "sidebar": "tutorialSidebar",
  "previous": {
    "title": "Lime - v0.0.1",
    "permalink": "/software/json_schema_distribution/staging_wiki/docs/Conventions/log/log--input--lime"
  },
  "next": {
    "title": "Organic Matter - v0.0.1",
    "permalink": "/software/json_schema_distribution/staging_wiki/docs/Conventions/log/log--input--organic_matter"
  }
}