[{
    "type": "farmos",
    "farmosType": "log",
    "url": "coffeeshop.farmos.dev",
    "time": 1696876208235,
    "entity": {
        "type": "log--activity",
        "attributes": {
            "name": "flaming",
            "status": "done",
            "notes": {
                "value": "minimum",
                "format": "default"
            },
            "timestamp": 1684018800
        },
        "relationships": {
            "asset": {
                "data": [
                    {
                        "type": "asset--plant",
                        "id": "80269c57-7fda-4218-afca-eef8888205dc"
                    }
                ]
            },
            "category": {
                "data": [
                    {
                        "type": "taxonomy_term--log_category",
                        "name": "weed_control"
                    }
                ]
            }
        }
    }
},
{
    "type": "farmos",
    "url": "coffeeshop.farmos.dev",
    "time": 1696876208235,
    "entity": {
        "type": "quantity--standard",
        "id": "40db5afc-eb70-45cc-9ad9-f0532a21cee9",
        "attributes": {
            "value": {
                "decimal": 10
            },
            "label": "area"
        },
        "relationships": {
            "units": {
                "data": [
                    {
                        "type": "taxonomy_term--unit",
                        "name": "%"
                    }
                ]
            }
        }
    }
}]