[
    {
        "type": "farmos",
        "farmosType": "log",
        "url": "coffeeshop.farmos.dev",
        "time": 1696876208255,
        "entity": {
            "type": "log--input",
            "attributes": {
                "name": "irrigation",
                "status": "done",
                "notes": {
                    "value": "minimum",
                    "format": "default"
                },
                "source": "",
                "timestamp": 1690844400
            },
            "relationships": {
                "asset": {
                    "data": [
                        {
                            "type": "asset--plant",
                            "id": "80269c57-7fda-4218-afca-eef8888205dc"
                        }
                    ]
                },
                "category": {
                    "data": [
                        {
                            "type": "taxonomy_term--log_category",
                            "name": "irrigation"
                        }
                    ]
                }
            }
        }
    },
    {
        "type": "farmos",
        "farmosType": "log",
        "url": "coffeeshop.farmos.dev",
        "time": 1696876208255,
        "entity": {
            "type": "log--input",
            "attributes": {
                "name": "irrigation",
                "status": "done",
                "notes": {
                    "value": "minimum",
                    "format": "default"
                },
                "source": "",
                "timestamp": 1691017200
            },
            "relationships": {
                "asset": {
                    "data": [
                        {
                            "type": "asset--plant",
                            "id": "80269c57-7fda-4218-afca-eef8888205dc"
                        }
                    ]
                },
                "category": {
                    "data": [
                        {
                            "type": "taxonomy_term--log_category",
                            "name": "irrigation"
                        }
                    ]
                }
            }
        }
    },
    {
        "type": "farmos",
        "farmosType": "log",
        "url": "coffeeshop.farmos.dev",
        "time": 1696876208255,
        "entity": {
            "type": "log--input",
            "attributes": {
                "name": "irrigation",
                "status": "done",
                "notes": {
                    "value": "minimum",
                    "format": "default"
                },
                "source": "",
                "timestamp": 1691190000
            },
            "relationships": {
                "asset": {
                    "data": [
                        {
                            "type": "asset--plant",
                            "id": "80269c57-7fda-4218-afca-eef8888205dc"
                        }
                    ]
                },
                "category": {
                    "data": [
                        {
                            "type": "taxonomy_term--log_category",
                            "name": "irrigation"
                        }
                    ]
                }
            }
        }
    },
    {
        "type": "farmos",
        "farmosType": "log",
        "url": "coffeeshop.farmos.dev",
        "time": 1696876208255,
        "entity": {
            "type": "log--input",
            "attributes": {
                "name": "irrigation",
                "status": "done",
                "notes": {
                    "value": "minimum",
                    "format": "default"
                },
                "source": "",
                "timestamp": 1691362800
            },
            "relationships": {
                "asset": {
                    "data": [
                        {
                            "type": "asset--plant",
                            "id": "80269c57-7fda-4218-afca-eef8888205dc"
                        }
                    ]
                },
                "category": {
                    "data": [
                        {
                            "type": "taxonomy_term--log_category",
                            "name": "irrigation"
                        }
                    ]
                }
            }
        }
    },
    {
        "type": "farmos",
        "url": "coffeeshop.farmos.dev",
        "time": 1696876208256,
        "entity": {
            "type": "quantity--standard",
            "id": "7dd08246-905d-4bfa-9fac-e87f796a2008",
            "attributes": {
                "value": {
                    "decimal": 100
                },
                "label": "area"
            },
            "relationships": {
                "units": {
                    "data": [
                        {
                            "type": "taxonomy_term--unit",
                            "name": "%"
                        }
                    ]
                }
            }
        }
    },
    {
        "type": "farmos",
        "url": "coffeeshop.farmos.dev",
        "time": 1696876208256,
        "entity": {
            "type": "quantity--material",
            "id": "a89b2bf2-b68e-4d13-8ccd-876e8c569194",
            "attributes": {
                "value": {
                    "decimal": 15
                },
                "label": "irrigation"
            },
            "relationships": {
                "units": {
                    "data": [
                        {
                            "type": "taxonomy_term--unit",
                            "name": "mm"
                        }
                    ]
                },
                "material_type": {
                    "data": [
                        {
                            "type": "taxonomy_term--material_type",
                            "name": "water"
                        }
                    ]
                }
            }
        }
    },
    {
        "type": "farmos",
        "url": "coffeeshop.farmos.dev",
        "time": 1696876208256,
        "entity": {
            "type": "quantity--standard",
            "id": "2982da95-c4dd-4855-b01a-d25e5ac12e03",
            "attributes": {
                "value": {
                    "decimal": 1
                },
                "label": "effectiveness"
            },
            "relationships": {}
        }
    },
    {
        "type": "farmos",
        "farmosType": "log",
        "url": "coffeeshop.farmos.dev",
        "time": 1696876208256,
        "entity": {
            "type": "log--input",
            "attributes": {
                "name": "irrigation well 15 mm",
                "status": "done",
                "notes": {
                    "value": "maximum",
                    "format": "default"
                },
                "source": "well",
                "timestamp": 1690844400
            },
            "relationships": {
                "asset": {
                    "data": [
                        {
                            "type": "asset--plant",
                            "id": "80269c57-7fda-4218-afca-eef8888205dc"
                        }
                    ]
                },
                "category": {
                    "data": [
                        {
                            "type": "taxonomy_term--log_category",
                            "name": "irrigation"
                        }
                    ]
                },
                "quantity": {
                    "data": [
                        {
                            "type": "quantity--standard",
                            "id": "7dd08246-905d-4bfa-9fac-e87f796a2008"
                        },
                        {
                            "type": "quantity--material",
                            "id": "a89b2bf2-b68e-4d13-8ccd-876e8c569194"
                        },
                        {
                            "type": "quantity--standard",
                            "id": "2982da95-c4dd-4855-b01a-d25e5ac12e03"
                        }
                    ]
                }
            }
        }
    },
    {
        "type": "farmos",
        "url": "coffeeshop.farmos.dev",
        "time": 1696876208256,
        "entity": {
            "type": "quantity--standard",
            "id": "54abb8d1-ba50-4a9b-ba68-104d812b9827",
            "attributes": {
                "value": {
                    "decimal": 100
                },
                "label": "area"
            },
            "relationships": {
                "units": {
                    "data": [
                        {
                            "type": "taxonomy_term--unit",
                            "name": "%"
                        }
                    ]
                }
            }
        }
    },
    {
        "type": "farmos",
        "url": "coffeeshop.farmos.dev",
        "time": 1696876208256,
        "entity": {
            "type": "quantity--material",
            "id": "c9f5948b-9152-48ac-ab98-a19d775536ba",
            "attributes": {
                "value": {
                    "decimal": 15
                },
                "label": "irrigation"
            },
            "relationships": {
                "units": {
                    "data": [
                        {
                            "type": "taxonomy_term--unit",
                            "name": "mm"
                        }
                    ]
                },
                "material_type": {
                    "data": [
                        {
                            "type": "taxonomy_term--material_type",
                            "name": "water"
                        }
                    ]
                }
            }
        }
    },
    {
        "type": "farmos",
        "url": "coffeeshop.farmos.dev",
        "time": 1696876208256,
        "entity": {
            "type": "quantity--standard",
            "id": "3b6ed867-e313-43ac-9160-c45069877989",
            "attributes": {
                "value": {
                    "decimal": 1
                },
                "label": "effectiveness"
            },
            "relationships": {}
        }
    },
    {
        "type": "farmos",
        "farmosType": "log",
        "url": "coffeeshop.farmos.dev",
        "time": 1696876208256,
        "entity": {
            "type": "log--input",
            "attributes": {
                "name": "irrigation well 15 mm",
                "status": "done",
                "notes": {
                    "value": "maximum",
                    "format": "default"
                },
                "source": "well",
                "timestamp": 1691017200
            },
            "relationships": {
                "asset": {
                    "data": [
                        {
                            "type": "asset--plant",
                            "id": "80269c57-7fda-4218-afca-eef8888205dc"
                        }
                    ]
                },
                "category": {
                    "data": [
                        {
                            "type": "taxonomy_term--log_category",
                            "name": "irrigation"
                        }
                    ]
                },
                "quantity": {
                    "data": [
                        {
                            "type": "quantity--standard",
                            "id": "54abb8d1-ba50-4a9b-ba68-104d812b9827"
                        },
                        {
                            "type": "quantity--material",
                            "id": "c9f5948b-9152-48ac-ab98-a19d775536ba"
                        },
                        {
                            "type": "quantity--standard",
                            "id": "3b6ed867-e313-43ac-9160-c45069877989"
                        }
                    ]
                }
            }
        }
    },
    {
        "type": "farmos",
        "url": "coffeeshop.farmos.dev",
        "time": 1696876208256,
        "entity": {
            "type": "quantity--standard",
            "id": "e734d2c5-652a-421a-9218-515627e98490",
            "attributes": {
                "value": {
                    "decimal": 100
                },
                "label": "area"
            },
            "relationships": {
                "units": {
                    "data": [
                        {
                            "type": "taxonomy_term--unit",
                            "name": "%"
                        }
                    ]
                }
            }
        }
    },
    {
        "type": "farmos",
        "url": "coffeeshop.farmos.dev",
        "time": 1696876208256,
        "entity": {
            "type": "quantity--material",
            "id": "fb6dc25d-eed5-49c6-82a2-db7a03f4ef2c",
            "attributes": {
                "value": {
                    "decimal": 15
                },
                "label": "irrigation"
            },
            "relationships": {
                "units": {
                    "data": [
                        {
                            "type": "taxonomy_term--unit",
                            "name": "mm"
                        }
                    ]
                },
                "material_type": {
                    "data": [
                        {
                            "type": "taxonomy_term--material_type",
                            "name": "water"
                        }
                    ]
                }
            }
        }
    },
    {
        "type": "farmos",
        "url": "coffeeshop.farmos.dev",
        "time": 1696876208256,
        "entity": {
            "type": "quantity--standard",
            "id": "b8c7c557-46ad-4160-b321-d494ccde2e3b",
            "attributes": {
                "value": {
                    "decimal": 1
                },
                "label": "effectiveness"
            },
            "relationships": {}
        }
    },
    {
        "type": "farmos",
        "farmosType": "log",
        "url": "coffeeshop.farmos.dev",
        "time": 1696876208256,
        "entity": {
            "type": "log--input",
            "attributes": {
                "name": "irrigation well 15 mm",
                "status": "done",
                "notes": {
                    "value": "maximum",
                    "format": "default"
                },
                "source": "well",
                "timestamp": 1691190000
            },
            "relationships": {
                "asset": {
                    "data": [
                        {
                            "type": "asset--plant",
                            "id": "80269c57-7fda-4218-afca-eef8888205dc"
                        }
                    ]
                },
                "category": {
                    "data": [
                        {
                            "type": "taxonomy_term--log_category",
                            "name": "irrigation"
                        }
                    ]
                },
                "quantity": {
                    "data": [
                        {
                            "type": "quantity--standard",
                            "id": "e734d2c5-652a-421a-9218-515627e98490"
                        },
                        {
                            "type": "quantity--material",
                            "id": "fb6dc25d-eed5-49c6-82a2-db7a03f4ef2c"
                        },
                        {
                            "type": "quantity--standard",
                            "id": "b8c7c557-46ad-4160-b321-d494ccde2e3b"
                        }
                    ]
                }
            }
        }
    },
    {
        "type": "farmos",
        "url": "coffeeshop.farmos.dev",
        "time": 1696876208256,
        "entity": {
            "type": "quantity--standard",
            "id": "82b4ca2c-9f62-4633-98e8-904e673798c0",
            "attributes": {
                "value": {
                    "decimal": 100
                },
                "label": "area"
            },
            "relationships": {
                "units": {
                    "data": [
                        {
                            "type": "taxonomy_term--unit",
                            "name": "%"
                        }
                    ]
                }
            }
        }
    },
    {
        "type": "farmos",
        "url": "coffeeshop.farmos.dev",
        "time": 1696876208256,
        "entity": {
            "type": "quantity--material",
            "id": "2655a69c-19ac-434d-999e-d89ef0e30336",
            "attributes": {
                "value": {
                    "decimal": 15
                },
                "label": "irrigation"
            },
            "relationships": {
                "units": {
                    "data": [
                        {
                            "type": "taxonomy_term--unit",
                            "name": "mm"
                        }
                    ]
                },
                "material_type": {
                    "data": [
                        {
                            "type": "taxonomy_term--material_type",
                            "name": "water"
                        }
                    ]
                }
            }
        }
    },
    {
        "type": "farmos",
        "url": "coffeeshop.farmos.dev",
        "time": 1696876208256,
        "entity": {
            "type": "quantity--standard",
            "id": "89b54e8c-ff2f-49d9-b60d-f226c9a359fe",
            "attributes": {
                "value": {
                    "decimal": 1
                },
                "label": "effectiveness"
            },
            "relationships": {}
        }
    },
    {
        "type": "farmos",
        "farmosType": "log",
        "url": "coffeeshop.farmos.dev",
        "time": 1696876208256,
        "entity": {
            "type": "log--input",
            "attributes": {
                "name": "irrigation well 15 mm",
                "status": "done",
                "notes": {
                    "value": "maximum",
                    "format": "default"
                },
                "source": "well",
                "timestamp": 1691362800
            },
            "relationships": {
                "asset": {
                    "data": [
                        {
                            "type": "asset--plant",
                            "id": "80269c57-7fda-4218-afca-eef8888205dc"
                        }
                    ]
                },
                "category": {
                    "data": [
                        {
                            "type": "taxonomy_term--log_category",
                            "name": "irrigation"
                        }
                    ]
                },
                "quantity": {
                    "data": [
                        {
                            "type": "quantity--standard",
                            "id": "82b4ca2c-9f62-4633-98e8-904e673798c0"
                        },
                        {
                            "type": "quantity--material",
                            "id": "2655a69c-19ac-434d-999e-d89ef0e30336"
                        },
                        {
                            "type": "quantity--standard",
                            "id": "89b54e8c-ff2f-49d9-b60d-f226c9a359fe"
                        }
                    ]
                }
            }
        }
    }
]