[
    {
        "type": "farmos",
        "farmosType": "log",
        "url": "coffeeshop.farmos.dev",
        "time": 1696876208245,
        "entity": {
            "type": "log--input",
            "attributes": {
                "name": "fertilizer",
                "status": "done",
                "notes": {
                    "value": "minimum repeated",
                    "format": "default"
                },
                "source": "",
                "timestamp": 1682895600
            },
            "relationships": {
                "asset": {
                    "data": [
                        {
                            "type": "asset--plant",
                            "id": "80269c57-7fda-4218-afca-eef8888205dc"
                        }
                    ]
                },
                "category": {
                    "data": [
                        {
                            "type": "taxonomy_term--log_category",
                            "name": "amendment"
                        }
                    ]
                }
            }
        }
    },
    {
        "type": "farmos",
        "farmosType": "log",
        "url": "coffeeshop.farmos.dev",
        "time": 1696876208245,
        "entity": {
            "type": "log--input",
            "attributes": {
                "name": "fertilizer",
                "status": "done",
                "notes": {
                    "value": "minimum repeated",
                    "format": "default"
                },
                "source": "",
                "timestamp": 1683068400
            },
            "relationships": {
                "asset": {
                    "data": [
                        {
                            "type": "asset--plant",
                            "id": "80269c57-7fda-4218-afca-eef8888205dc"
                        }
                    ]
                },
                "category": {
                    "data": [
                        {
                            "type": "taxonomy_term--log_category",
                            "name": "amendment"
                        }
                    ]
                }
            }
        }
    },
    {
        "type": "farmos",
        "farmosType": "log",
        "url": "coffeeshop.farmos.dev",
        "time": 1696876208245,
        "entity": {
            "type": "log--input",
            "attributes": {
                "name": "fertilizer",
                "status": "done",
                "notes": {
                    "value": "minimum repeated",
                    "format": "default"
                },
                "source": "",
                "timestamp": 1683241200
            },
            "relationships": {
                "asset": {
                    "data": [
                        {
                            "type": "asset--plant",
                            "id": "80269c57-7fda-4218-afca-eef8888205dc"
                        }
                    ]
                },
                "category": {
                    "data": [
                        {
                            "type": "taxonomy_term--log_category",
                            "name": "amendment"
                        }
                    ]
                }
            }
        }
    },
    {
        "type": "farmos",
        "farmosType": "log",
        "url": "coffeeshop.farmos.dev",
        "time": 1696876208245,
        "entity": {
            "type": "log--input",
            "attributes": {
                "name": "fertilizer",
                "status": "done",
                "notes": {
                    "value": "minimum repeated",
                    "format": "default"
                },
                "source": "",
                "timestamp": 1683414000
            },
            "relationships": {
                "asset": {
                    "data": [
                        {
                            "type": "asset--plant",
                            "id": "80269c57-7fda-4218-afca-eef8888205dc"
                        }
                    ]
                },
                "category": {
                    "data": [
                        {
                            "type": "taxonomy_term--log_category",
                            "name": "amendment"
                        }
                    ]
                }
            }
        }
    }
]