[
    {
        "type": "farmos",
        "farmosType": "log",
        "url": "coffeeshop.farmos.dev",
        "time": 1696876208242,
        "entity": {
            "type": "log--input",
            "attributes": {
                "name": "fertilizer",
                "status": "done",
                "notes": {
                    "value": "minimum",
                    "format": "default"
                },
                "source": "",
                "timestamp": 1685574000
            },
            "relationships": {
                "asset": {
                    "data": [
                        {
                            "type": "asset--plant",
                            "id": "80269c57-7fda-4218-afca-eef8888205dc"
                        }
                    ]
                },
                "category": {
                    "data": [
                        {
                            "type": "taxonomy_term--log_category",
                            "name": "amendment"
                        }
                    ]
                }
            }
        }
    },
    {
        "type": "farmos",
        "url": "coffeeshop.farmos.dev",
        "time": 1696876208243,
        "entity": {
            "type": "quantity--standard",
            "id": "8e640189-9c98-4981-adea-2c1fab1969ca",
            "attributes": {
                "value": {
                    "decimal": 15
                },
                "label": "area"
            },
            "relationships": {
                "units": {
                    "data": [
                        {
                            "type": "taxonomy_term--unit",
                            "name": "%"
                        }
                    ]
                }
            }
        }
    },
    {
        "type": "farmos",
        "url": "coffeeshop.farmos.dev",
        "time": 1696876208243,
        "entity": {
            "type": "quantity--material",
            "id": "ee2a9089-0d83-4a7c-9679-c229f592d787",
            "attributes": {
                "value": {
                    "decimal": 12
                },
                "label": "fertilizer"
            },
            "relationships": {
                "units": {
                    "data": [
                        {
                            "type": "taxonomy_term--unit",
                            "name": "gallons_acre"
                        }
                    ]
                },
                "material_type": {
                    "data": [
                        {
                            "type": "taxonomy_term--material_type",
                            "name": "alfalfameal"
                        },
                        {
                            "type": "taxonomy_term--material_type",
                            "name": "fertilizer"
                        }
                    ]
                }
            }
        }
    },
    {
        "type": "farmos",
        "url": "coffeeshop.farmos.dev",
        "time": 1696876208244,
        "entity": {
            "type": "quantity--standard",
            "id": "27f31c1d-195b-4e2d-9e93-bead324e49a3",
            "attributes": {
                "value": {
                    "decimal": 5
                },
                "label": "n"
            },
            "relationships": {
                "units": {
                    "data": [
                        {
                            "type": "taxonomy_term--unit",
                            "name": "%"
                        }
                    ]
                }
            }
        }
    },
    {
        "type": "farmos",
        "url": "coffeeshop.farmos.dev",
        "time": 1696876208244,
        "entity": {
            "type": "quantity--standard",
            "id": "633333e0-b214-4873-b484-10bfdd3a402b",
            "attributes": {
                "value": {
                    "decimal": 3
                },
                "label": "p"
            },
            "relationships": {
                "units": {
                    "data": [
                        {
                            "type": "taxonomy_term--unit",
                            "name": "%"
                        }
                    ]
                }
            }
        }
    },
    {
        "type": "farmos",
        "url": "coffeeshop.farmos.dev",
        "time": 1696876208244,
        "entity": {
            "type": "quantity--standard",
            "id": "724fc546-284d-43cb-826b-0d0b017f765a",
            "attributes": {
                "value": {
                    "decimal": 3
                },
                "label": "k"
            },
            "relationships": {
                "units": {
                    "data": [
                        {
                            "type": "taxonomy_term--unit",
                            "name": "%"
                        }
                    ]
                }
            }
        }
    },
    {
        "type": "farmos",
        "url": "coffeeshop.farmos.dev",
        "time": 1696876208244,
        "entity": {
            "type": "quantity--standard",
            "id": "a54cd73c-a560-46bb-9930-a0bf32144503",
            "attributes": {
                "label": "n"
            },
            "relationships": {}
        }
    },
    {
        "type": "farmos",
        "farmosType": "log",
        "url": "coffeeshop.farmos.dev",
        "time": 1696876208243,
        "entity": {
            "type": "log--input",
            "attributes": {
                "name": "fertilizer alfalfameal 12 gallons acre",
                "status": "done",
                "notes": {
                    "value": "maximum, no multiples",
                    "format": "default"
                },
                "method": "broadcast incorporated",
                "source": "altar",
                "timestamp": 1685574000
            },
            "relationships": {
                "asset": {
                    "data": [
                        {
                            "type": "asset--plant",
                            "id": "80269c57-7fda-4218-afca-eef8888205dc"
                        }
                    ]
                },
                "category": {
                    "data": [
                        {
                            "type": "taxonomy_term--log_category",
                            "name": "amendment"
                        }
                    ]
                },
                "quantity": {
                    "data": [
                        {
                            "type": "quantity--standard",
                            "id": "8e640189-9c98-4981-adea-2c1fab1969ca"
                        },
                        {
                            "type": "quantity--material",
                            "id": "ee2a9089-0d83-4a7c-9679-c229f592d787"
                        },
                        {
                            "type": "quantity--standard",
                            "id": "27f31c1d-195b-4e2d-9e93-bead324e49a3"
                        },
                        {
                            "type": "quantity--standard",
                            "id": "633333e0-b214-4873-b484-10bfdd3a402b"
                        },
                        {
                            "type": "quantity--standard",
                            "id": "724fc546-284d-43cb-826b-0d0b017f765a"
                        },
                        {
                            "type": "quantity--standard",
                            "id": "a54cd73c-a560-46bb-9930-a0bf32144503"
                        }
                    ]
                }
            }
        }
    },
    {
        "type": "farmos",
        "url": "coffeeshop.farmos.dev",
        "time": 1696876208244,
        "entity": {
            "type": "quantity--standard",
            "id": "0ecdb8bb-5ee3-4920-8f13-49c07e95f2fc",
            "attributes": {
                "value": {
                    "decimal": 15
                },
                "label": "area"
            },
            "relationships": {
                "units": {
                    "data": [
                        {
                            "type": "taxonomy_term--unit",
                            "name": "%"
                        }
                    ]
                }
            }
        }
    },
    {
        "type": "farmos",
        "url": "coffeeshop.farmos.dev",
        "time": 1696876208244,
        "entity": {
            "type": "quantity--material",
            "id": "512f8392-115a-4211-8dc7-eecbc49bbc38",
            "attributes": {
                "value": {
                    "decimal": 12
                },
                "label": "fertilizer"
            },
            "relationships": {
                "units": {
                    "data": [
                        {
                            "type": "taxonomy_term--unit",
                            "name": "gallons_acre"
                        }
                    ]
                },
                "material_type": {
                    "data": [
                        {
                            "type": "taxonomy_term--material_type",
                            "name": "alfalfameal"
                        },
                        {
                            "type": "taxonomy_term--material_type",
                            "name": "brown_phosphate"
                        },
                        {
                            "type": "taxonomy_term--material_type",
                            "name": "fertilizer"
                        }
                    ]
                }
            }
        }
    },
    {
        "type": "farmos",
        "url": "coffeeshop.farmos.dev",
        "time": 1696876208244,
        "entity": {
            "type": "quantity--standard",
            "id": "78ed8b62-a144-4a00-a78e-08ae1d58bd2b",
            "attributes": {
                "value": {
                    "decimal": 5
                },
                "label": "n"
            },
            "relationships": {
                "units": {
                    "data": [
                        {
                            "type": "taxonomy_term--unit",
                            "name": "%"
                        }
                    ]
                }
            }
        }
    },
    {
        "type": "farmos",
        "url": "coffeeshop.farmos.dev",
        "time": 1696876208244,
        "entity": {
            "type": "quantity--standard",
            "id": "850722fc-33a3-48d0-9296-eafab872a600",
            "attributes": {
                "value": {
                    "decimal": 3
                },
                "label": "p"
            },
            "relationships": {
                "units": {
                    "data": [
                        {
                            "type": "taxonomy_term--unit",
                            "name": "%"
                        }
                    ]
                }
            }
        }
    },
    {
        "type": "farmos",
        "url": "coffeeshop.farmos.dev",
        "time": 1696876208244,
        "entity": {
            "type": "quantity--standard",
            "id": "780c2714-f6a6-4e54-b7f6-b88fc968e272",
            "attributes": {
                "value": {
                    "decimal": 3
                },
                "label": "k"
            },
            "relationships": {
                "units": {
                    "data": [
                        {
                            "type": "taxonomy_term--unit",
                            "name": "%"
                        }
                    ]
                }
            }
        }
    },
    {
        "type": "farmos",
        "url": "coffeeshop.farmos.dev",
        "time": 1696876208244,
        "entity": {
            "type": "quantity--standard",
            "id": "78540714-752c-4143-a547-0b2c657c9b6c",
            "attributes": {
                "label": "n"
            },
            "relationships": {}
        }
    },
    {
        "type": "farmos",
        "url": "coffeeshop.farmos.dev",
        "time": 1696876208244,
        "entity": {
            "type": "quantity--standard",
            "id": "5bf360a7-237b-4796-83a6-5b5d0e470953",
            "attributes": {
                "label": "ca"
            },
            "relationships": {}
        }
    },
    {
        "type": "farmos",
        "farmosType": "log",
        "url": "coffeeshop.farmos.dev",
        "time": 1696876208244,
        "entity": {
            "type": "log--input",
            "attributes": {
                "name": "fertilizer alfalfameal, brown phosphate 12 gallons acre",
                "status": "done",
                "notes": {
                    "value": "maximum w termination, with multiples",
                    "format": "default"
                },
                "method": "broadcast incorporated",
                "source": "altar, bolthouse farms",
                "timestamp": 1685574000
            },
            "relationships": {
                "asset": {
                    "data": [
                        {
                            "type": "asset--plant",
                            "id": "80269c57-7fda-4218-afca-eef8888205dc"
                        }
                    ]
                },
                "category": {
                    "data": [
                        {
                            "type": "taxonomy_term--log_category",
                            "name": "amendment"
                        }
                    ]
                },
                "quantity": {
                    "data": [
                        {
                            "type": "quantity--standard",
                            "id": "0ecdb8bb-5ee3-4920-8f13-49c07e95f2fc"
                        },
                        {
                            "type": "quantity--material",
                            "id": "512f8392-115a-4211-8dc7-eecbc49bbc38"
                        },
                        {
                            "type": "quantity--standard",
                            "id": "78ed8b62-a144-4a00-a78e-08ae1d58bd2b"
                        },
                        {
                            "type": "quantity--standard",
                            "id": "850722fc-33a3-48d0-9296-eafab872a600"
                        },
                        {
                            "type": "quantity--standard",
                            "id": "780c2714-f6a6-4e54-b7f6-b88fc968e272"
                        },
                        {
                            "type": "quantity--standard",
                            "id": "78540714-752c-4143-a547-0b2c657c9b6c"
                        },
                        {
                            "type": "quantity--standard",
                            "id": "5bf360a7-237b-4796-83a6-5b5d0e470953"
                        }
                    ]
                }
            }
        }
    }
]