{
  "label": "conventions",
  "permalink": "/software/json_schema_distribution/staging_wiki/blog/tags/conventions",
  "allTagsPath": "/software/json_schema_distribution/staging_wiki/blog/tags",
  "count": 2,
  "unlisted": false
}