[
  {
    "label": "json_schema",
    "permalink": "/software/json_schema_distribution/staging_wiki/blog/tags/json-schema",
    "count": 2
  },
  {
    "label": "conventions",
    "permalink": "/software/json_schema_distribution/staging_wiki/blog/tags/conventions",
    "count": 2
  },
  {
    "label": "code",
    "permalink": "/software/json_schema_distribution/staging_wiki/blog/tags/code",
    "count": 2
  },
  {
    "label": "node",
    "permalink": "/software/json_schema_distribution/staging_wiki/blog/tags/node",
    "count": 2
  },
  {
    "label": "javascript",
    "permalink": "/software/json_schema_distribution/staging_wiki/blog/tags/javascript",
    "count": 2
  }
]